…
traits

## # A tibble: 2,730 x 3
##    breed                 traits       rating
##    <chr>                 <chr>         <dbl>
##  1 Retrievers (Labrador) Family            5
##  2 Retrievers (Labrador) Children          5
##  3 Retrievers (Labrador) Dogs              5
##  4 Retrievers (Labrador) Shedding          4
##  5 Retrievers (Labrador) Coat              2
##  6 Retrievers (Labrador) Drooling          2
##  7 Retrievers (Labrador) Strangers         5
##  8 Retrievers (Labrador) Watchdog          3
##  9 Retrievers (Labrador) Adaptability      5
## 10 Retrievers (Labrador) Trainability      5
## # ... with 2,720 more rows
…
